{
  "connection": "default",
  "collectionName": "clubs",
  "info": {
    "name": "club",
    "description": ""
  },
  "options": {
    "increments": true,
    "timestamps": [
      "created_at",
      "updated_at"
    ],
    "comment": ""
  },
  "attributes": {
    "name": {
      "type": "string",
      "required": true,
      "unique": true,
      "minLength": 3
    },
    "description": {
      "type": "text"
    },
    "events": {
      "collection": "event",
      "via": "club"
    },
    "members": {
      "collection": "user",
      "dominant": true,
      "via": "clubs",
      "plugin": "users-permissions"
    },
    "owner": {
      "model": "user",
      "via": "owned_clubs",
      "plugin": "users-permissions"
    }
  }
}