{
  "connection": "default",
  "collectionName": "blogposts",
  "info": {
    "name": "blogpost",
    "description": ""
  },
  "options": {
    "increments": true,
    "timestamps": [
      "created_at",
      "updated_at"
    ],
    "comment": ""
  },
  "attributes": {
    "title": {
      "type": "string",
      "required": true
    },
    "comments": {
      "group": "comment",
      "repeatable": true,
      "type": "group"
    },
    "content": {
      "type": "richtext",
      "required": true
    },
    "author": {
      "model": "user",
      "plugin": "users-permissions"
    }
  }
}